lab2 part2/lab2 part2.sim/sim_1/behav/xsim/simulate.log
Vivado Simulator 2019.1
Time resolution is 1 ps
 
 
********************************************************************************************
   C E C S    3 4 1    L A B    2pt2    T e s t b e n c h    R e s u l t s                  
********************************************************************************************
 
time=   5.0 ns  A=0001  B=0000  ||  Sum_out=0001
time=  10.0 ns  A=0010  B=0001  ||  Sum_out=0001
time=  15.0 ns  A=0011  B=0010  ||  Sum_out=0001
time=  20.0 ns  A=0100  B=0011  ||  Sum_out=0001
time=  25.0 ns  A=0101  B=0100  ||  Sum_out=0001
time=  30.0 ns  A=0110  B=0101  ||  Sum_out=0001
time=  35.0 ns  A=0111  B=0110  ||  Sum_out=0001
time=  40.0 ns  A=1000  B=0111  ||  Sum_out=0001
time=  45.0 ns  A=1001  B=1000  ||  Sum_out=0001
time=  50.0 ns  A=1010  B=1001  ||  Sum_out=0001
time=  55.0 ns  A=1011  B=1010  ||  Sum_out=0001
time=  60.0 ns  A=1100  B=1011  ||  Sum_out=0001
time=  65.0 ns  A=1101  B=1100  ||  Sum_out=0001
time=  70.0 ns  A=1110  B=1101  ||  Sum_out=0001
time=  75.0 ns  A=1111  B=1110  ||  Sum_out=0001
time=  80.0 ns  A=0000  B=1111  ||  Sum_out=0001
$finish called at time : 80 ns : File "C:/Users/Julian/Desktop/VivadoProjects/cecs341/lab2 part2/lab2 part2.srcs/sim_1/new/adder_4bit_tb.v" Line 43
